…
### Standardizing countries with the `detect_countries()` function

``` r
users_to_countries <- github_users %>%
  detect_countries(login, location, country_name, email) 

users_to_countries  %>% 
  drop_na(country_name) %>% 
  select(country_name, location)
```

    ## # A tibble: 465 × 2
    ##    country_name   location                 
    ##    <chr>          <chr>                    
    ##  1 italy          In the clouds above Italy
    ##  2 united states  St. Louis, MO            
    ##  3 brazil         Porto Alegre, RS - Brazil
    ##  4 united states  San Antonio, TX          
    ##  5 poland         Poland, Wrocaw           
    ##  6 united kingdom Manchester, UK           
    ##  7 united states  Sunnyvale, CA            
    ##  8 germany        Karlsruhe                
    ##  9 italy          Vicenza, Italy           
    ## 10 france         Marseille, France        
    ## # … with 455 more rows
